{
  "schemaVersion": 1,
  "id": "warps",
  "version": "${version}",

  "name": "Lastek Warp Mod",
  "description": "Adds /warps to libremc!",
  "authors": [
    "Lastek"
  ],
  "contact": {
    "homepage": "",
    "sources": ""
  },

  "license": "ecl-2.0",
  "icon": "assets/lastek/icon.png",

  "environment": "*",
  "entrypoints": {
    "main": [
      "com.lastek.libremc.Warps"
    ]
  },
  "mixins": [
  ],

  "depends": {
    "fabricloader": ">=0.7.4",
    "fabric": "*",
    "minecraft": "1.16.x"
  },
  "suggests": {
    "flamingo": "*"
  }
}
